<?xml version="1.0" encoding="UTF-8"?>
<svg width="33px" height="45px" viewBox="0 0 33 45" version="1.1" xmlns="http://www.w3.org/2000/svg" xmlns:xlink="http://www.w3.org/1999/xlink">
    <!-- Generator: Sketch 47.1 (45422) - http://www.bohemiancoding.com/sketch -->
    <title>Yelp</title>
    <desc>Created with Sketch.</desc>
    <defs>
        <path d="M3.629175,21.1283333 L12.2496,25.3741667 C13.90785,26.1916667 13.6521,28.655 11.86185,29.1058333 L2.55585,31.4491667 C1.395075,31.7416667 0.24915,30.9325 0.1122,29.7325 C-0.180675,27.1641667 0.108075,24.6283333 0.88935,22.2808333 C1.26885,21.1408333 2.558325,20.6008333 3.629175,21.1283333 Z M7.080975,39.0533333 L13.497,31.855 C14.7312,30.47 17.0049,31.3975 16.94055,33.26 L16.6056,42.9441667 C16.56435,44.1508333 15.479475,45.0441667 14.30055,44.8441667 C11.821425,44.4241667 9.47595,43.4558333 7.4283,42.0358333 C6.4449,41.3525 6.28155,39.95 7.080975,39.0533333 Z M22.293975,29.4741667 L31.41435,32.4675 C32.54955,32.84 33.103125,34.1375 32.588325,35.2258333 C31.5183,37.49 29.9673,39.5125 28.02855,41.1291667 C27.1062,41.8975 25.724325,41.6716667 25.090725,40.6475 L20.007075,32.43 C19.02945,30.8491667 20.5392,28.8975 22.293975,29.4741667 Z M31.568625,23.5966667 L22.34925,26.2666667 C20.5755,26.7808333 19.134225,24.7766667 20.1663,23.2316667 L25.529625,15.2008333 C26.196225,14.2033333 27.580575,14.02 28.473225,14.815 C30.31215,16.4541667 31.817775,18.5041667 32.835,20.8758333 C33.311025,21.9841667 32.718675,23.2641667 31.568625,23.5966667 Z M10.026225,1 C11.6853,0.550833333 13.35015,0.265 15.00345,0.133333333 C16.1502,0.0425 17.1303,0.963333333 17.1303,2.12583333 L17.1303,20.3291667 C17.1303,22.3708333 14.453175,23.0958333 13.44255,21.3266667 L4.4319,5.5625 C3.85605,4.55583333 4.24875,3.26333333 5.287425,2.76333333 C6.783975,2.0425 8.36715,1.44916667 10.026225,1 Z" id="path-1"></path>
    </defs>
    <g id="Symbols" stroke="none" stroke-width="1" fill="none" fill-rule="evenodd">
        <g id="Yelp-Module" transform="translate(-142.000000, -30.000000)">
            <g id="Yelp-Module-Mobile">
                <g id="%" transform="translate(40.000000, 30.000000)">
                    <g id="Yelp" transform="translate(102.000000, 0.000000)">
                        <g id="Yelp_Burst_Screen_Yelp_burst_positive_RGB">
                            <mask id="mask-2" fill="white">
                                <use xlink:href="#path-1"></use>
                            </mask>
                            <use id="Combined-Shape" fill="#D32323" xlink:href="#path-1"></use>
                            <g id="🎨-Color-/-White" mask="url(#mask-2)" fill="#FFFFFF">
                                <rect id="Box" x="0" y="0" width="33" height="45"></rect>
                            </g>
                        </g>
                    </g>
                </g>
            </g>
        </g>
    </g>
</svg>