<svg width="32px" height="32px" viewBox="0 0 33 32" version="1.1" xmlns="http://www.w3.org/2000/svg" xmlns:xlink="http://www.w3.org/1999/xlink">
    <!-- Generator: Sketch 46.2 (44496) - http://www.bohemiancoding.com/sketch -->
    <desc>Created with Sketch.</desc>
    <defs>
        <path d="M29.3065134,3.2 L31.6934866,3.2 L31.697318,3.20434783 L32,3.20434783 L32,3.54782609 L32,4.85217391 L32,5.2 L31.697318,5.2 L31.6934866,5.2 L29.3065134,5.2 L29,5.2 L29,4.85217391 L29,3.54782609 L29,3.20434783 L29.3065134,3.20434783 L29.3065134,3.2 Z M14.3869732,14.2 L15,14.2130435 L15,15.2434783 L15,19.1565217 L15,20.2 L14.394636,20.2 L9.61302682,20.2 L9,20.2 L9,19.1565217 L9,15.2434783 L9,14.2130435 L9.61302682,14.2130435 L14.3869732,14.2 Z M14.3869732,23.2 L15,23.2130435 L15,24.2434783 L15,28.1565217 L15,29.2 L14.394636,29.2 L9.61302682,29.2 L9,29.2 L9,28.1565217 L9,24.2434783 L9,23.2130435 L9.61302682,23.2130435 L14.3869732,23.2 Z M22.3869732,14.2 L23,14.2130435 L23,15.2434783 L23,19.1565217 L23,20.2 L22.394636,20.2 L17.6130268,20.2 L17,20.2 L17,19.1565217 L17,15.2434783 L17,14.2130435 L17.6130268,14.2130435 L22.3869732,14.2 Z M22.3869732,23.2 L23,23.2130435 L23,24.2434783 L23,28.1565217 L23,29.2 L22.394636,29.2 L17.6130268,29.2 L17,29.2 L17,28.1565217 L17,24.2434783 L17,23.2130435 L17.6130268,23.2130435 L22.3869732,23.2 Z M30.3869732,14.2 L31,14.2130435 L31,15.2434783 L31,19.1565217 L31,20.2 L30.394636,20.2 L25.6130268,20.2 L25,20.2 L25,19.1565217 L25,15.2434783 L25,14.2130435 L25.6130268,14.2130435 L30.3869732,14.2 Z M8.30612245,3.2 L10.6938776,3.2 L10.6938776,3.20434783 L11,3.20434783 L11,3.54782609 L11,4.85217391 L11,5.2 L10.6938776,5.2 L8.30612245,5.2 L8,5.2 L8,4.85217391 L8,3.54782609 L8,3.20434783 L8.30612245,3.20434783 L8.30612245,3.2 Z M7,11.6999998 L7,31.5939392 C7,31.9272725 6.98491199,32.1999998 6.96647108,32.1999998 L5.03352892,32.1999998 C5.01508801,32.1999998 5,31.9272725 5,31.5939392 L5,11.6999998 L7,11.6999998 Z M36,11.7191576 C36,11.532362 36,12.711562 36,15.2567576 C36,16.4782024 36,19.2221031 36,23.4884598 C36,25.0022813 36,27.7042966 36,31.5945056 C36,31.9275274 35.984912,32.1999998 35.9664711,32.1999998 L34.0335289,32.1999998 C34.015088,32.1999998 34,31.9275274 34,31.5945056 L34,11.7191576 L36,11.7191576 Z M36.5,7.5 L36.5,9.6349594 C36.5,9.67073175 36.484912,9.70000005 36.4664711,9.70000005 L34.5335289,9.70000005 C34.515088,9.70000005 34.5,9.67073175 34.5,9.6349594 L34.5,7.5 L36.5,7.5 Z M6.5,7.5 L6.5,9.6349594 C6.5,9.67073175 6.48491199,9.70000005 6.46647108,9.70000005 L4.53352892,9.70000005 C4.51508801,9.70000005 4.5,9.67073175 4.5,9.6349594 L4.5,7.5 L6.5,7.5 Z M36,34.2 L5.91648189,34.2 C5.41241685,34.2 5,34.184912 5,34.1664711 L5,32.2335289 C5,32.215088 5.41241685,32.2 5.91648189,32.2 L36,32.2 L36,34.2 Z M36.5,7.5 L5.44604582,7.5 C4.92572062,7.5 4.5,7.48491199 4.5,7.46647108 L4.5,5.53352892 C4.5,5.51508801 4.92572062,5.5 5.44604582,5.5 L36.5,5.5 L36.5,7.5 Z M36.5,11.7 L5.44604582,11.7 C4.92572062,11.7 4.5,11.684912 4.5,11.6664711 L4.5,9.73352892 C4.5,9.71508801 4.92572062,9.7 5.44604582,9.7 L36.5,9.7 L36.5,11.7 Z" id="path-1"></path>
    </defs>
    <g id="Appointment-Scheduler---2-Date" stroke="none" stroke-width="1" fill="none" fill-rule="evenodd">
        <g id="Appointment-Scheduler---2-Date-Time-Info---Mobile" transform="translate(-264.000000, -347.000000)">
            <g id="Icons-/-Calendar" transform="translate(260.000000, 344.000000)">
                <g id="Icons-/-Batteries">
                    <rect id="Blank-Box" x="0" y="0" width="40" height="40"></rect>
                    <mask id="mask-2" fill="white">
                        <use xlink:href="#path-1"></use>
                    </mask>
                    <use id="Combined-Shape" fill="#0E6993" xlink:href="#path-1"></use>
                    <g id="🎨-Color-/-LS-Red" mask="url(#mask-2)" fill="#ED1C24">
                        <rect id="Box" x="0" y="0" width="40" height="40"></rect>
                    </g>
                </g>
            </g>
        </g>
    </g>
</svg>