<svg width="50px" height="41px" viewBox="0 0 50 41" version="1.1" xmlns="http://www.w3.org/2000/svg" xmlns:xlink="http://www.w3.org/1999/xlink">
    <!-- Generator: Sketch 46.2 (44496) - http://www.bohemiancoding.com/sketch -->
    <desc>Created with Sketch.</desc>
    <defs>
        <path d="M18.0637761,27.5539114 L44.2165634,1.40112411 C44.9736178,0.644069741 46.212434,0.644069741 46.9694884,1.40112411 L51.0988759,5.53051159 C51.8559303,6.28756596 51.8559303,7.5263822 51.0988759,8.28343657 L19.4402386,39.9420739 C19.0617114,40.3206011 18.5627437,40.5098646 18.0637761,40.5098646 C17.5648084,40.5098646 17.0658408,40.3206011 16.6873136,39.9420739 L2.23445744,25.4892177 C1.47740307,24.7321633 1.47740307,23.4933471 2.23445744,22.7362927 L6.36384492,18.6069053 C7.12089929,17.8498509 8.35971553,17.8498509 9.1167699,18.6069053 L18.0637761,27.5539114 Z" id="path-1"></path>
    </defs>
    <g id="Appointment-Scheduler---4-Confirmation" stroke="none" stroke-width="1" fill="none" fill-rule="evenodd">
        <g id="Appointment-Scheduler---4-Confirmation---Desktop" transform="translate(-33.000000, -171.000000)">
            <g id="Image" transform="translate(0.000000, 113.000000)">
                <g id="Icons-/-Status-/-Good-Blue" transform="translate(8.000000, 31.000000)">
                    <g transform="translate(23.333333, 26.666667)">
                        <mask id="mask-2" fill="white">
                            <use xlink:href="#path-1"></use>
                        </mask>
                        <use id="Combined-Shape" fill="#065386" xlink:href="#path-1"></use>
                        <g id="🎨-Color-/-White" mask="url(#mask-2)" fill="#FFFFFF">
                            <g transform="translate(-23.333333, -26.666667)" id="Box">
                                <rect x="0" y="0" width="100" height="103"></rect>
                            </g>
                        </g>
                    </g>
                </g>
            </g>
        </g>
    </g>
</svg>