<svg width="36px" height="36px" viewBox="0 0 36 36" version="1.1" xmlns="http://www.w3.org/2000/svg" xmlns:xlink="http://www.w3.org/1999/xlink">
    <!-- Generator: Sketch 48.1 (47250) - http://www.bohemiancoding.com/sketch -->
    <desc>Created with Sketch.</desc>
    <defs>
        <path d="M20,2 C29.95,2 38,10.05 38,20 C38,29.95 29.95,38 20,38 C10.05,38 2,29.95 2,20 C2,10.05 10.05,2 20,2 Z M20,4 C11.1555556,4 4,11.1555556 4,20 C4,28.8444444 11.1555556,36 20,36 C28.8444444,36 36,28.8444444 36,20 C36,11.1555556 28.8444444,4 20,4 Z" id="path-1"></path>
    </defs>
    <g id="Symbols" stroke="none" stroke-width="1" fill="none" fill-rule="evenodd">
        <g id="Icons-/-Social-/-Email" transform="translate(-2.000000, -2.000000)">
            <g id="Icons-/-Pin">
                <mask id="mask-2" fill="white">
                    <use xlink:href="#path-1"></use>
                </mask>
                <use id="Combined-Shape" fill="#0E6993" xlink:href="#path-1"></use>
                <path d="M16.1947674,21.0507442 L19.6963488,23.616814 C19.8733721,23.7485581 20.1151163,23.7518837 20.2957209,23.625 L23.8612558,21.0906512 L30.2325581,26.7904419 L9.76744186,26.7904419 L16.1947674,21.0507442 Z M31,16.0145349 L31,26.1030698 L24.7085116,20.483093 L31,16.0145349 Z M9,15.7745814 L15.3554419,20.4352558 L9,26.1030698 L9,15.7745814 Z M9.26374419,14 L30.7362558,14 C30.8813023,14 31,14.1138372 31,14.255814 L31,14.7513256 L20,22.5695116 L9,14.5034419 L9,14.255814 C9,14.1138372 9.11869767,14 9.26374419,14 Z" id="Combined-Shape" fill="#065386"></path>
            </g>
        </g>
    </g>
</svg>