<svg width="36px" height="36px" viewBox="0 0 36 36" version="1.1" xmlns="http://www.w3.org/2000/svg" xmlns:xlink="http://www.w3.org/1999/xlink">
    <!-- Generator: Sketch 47.1 (45422) - http://www.bohemiancoding.com/sketch -->
    <desc>Created with Sketch.</desc>
    <defs>
        <path d="M20,2 C29.95,2 38,10.05 38,20 C38,29.95 29.95,38 20,38 C10.05,38 2,29.95 2,20 C2,10.05 10.05,2 20,2 Z M20,4 C11.1555556,4 4,11.1555556 4,20 C4,28.8444444 11.1555556,36 20,36 C28.8444444,36 36,28.8444444 36,20 C36,11.1555556 28.8444444,4 20,4 Z M23.985062,21.0227249 L21.1983529,21.0227249 L21.1983529,29.4278475 L17.7857092,29.4278475 L17.7857092,21.0227249 L15,21.0227249 L15,17.7040714 L17.7857092,17.7040714 L17.7857092,14.9643574 C17.7857092,12.7685866 19.4625341,10.9047812 21.9332762,11.0037708 L24.5799999,11.1107597 L24.5799999,14.1664407 L22.4742198,14.1664407 C21.772293,14.1664407 21.1983529,14.7403808 21.1983529,15.4413076 L21.1983529,17.7040714 L24.455013,17.7040714 L23.985062,21.0227249 Z" id="path-1"></path>
    </defs>
    <g id="Symbols" stroke="none" stroke-width="1" fill="none" fill-rule="evenodd">
        <g id="Social-Icons" transform="translate(0.000000, -2.000000)">
            <g id="Icons-/-Pin" transform="translate(-2.000000, 0.000000)">
                <rect id="Blank-Box" x="0" y="0" width="40" height="40"></rect>
                <mask id="mask-2" fill="white">
                    <use xlink:href="#path-1"></use>
                </mask>
                <use id="Combined-Shape" fill="#065386" xlink:href="#path-1"></use>
            </g>
        </g>
    </g>
</svg>