<svg width="36px" height="36px" viewBox="0 0 36 36" version="1.1" xmlns="http://www.w3.org/2000/svg" xmlns:xlink="http://www.w3.org/1999/xlink">
    <!-- Generator: Sketch 48.1 (47250) - http://www.bohemiancoding.com/sketch -->
    <desc>Created with Sketch.</desc>
    <defs>
        <path d="M20,2 C29.95,2 38,10.05 38,20 C38,29.95 29.95,38 20,38 C10.05,38 2,29.95 2,20 C2,10.05 10.05,2 20,2 Z M20,4 C11.1555556,4 4,11.1555556 4,20 C4,28.8444444 11.1555556,36 20,36 C28.8444444,36 36,28.8444444 36,20 C36,11.1555556 28.8444444,4 20,4 Z M16.7943,18.8236 L23.2103,18.8236 C23.2683,19.1636 23.3173,19.5026 23.3173,19.9496 C23.3173,23.8316 20.7153,26.5886 16.7943,26.5886 C13.0383,26.5886 10.0003,23.5506 10.0003,19.7946 C10.0003,16.0376 13.0383,12.9996 16.7943,12.9996 C18.6283,12.9996 20.1623,13.6696 21.3463,14.7766 L19.5023,16.5526 C18.9973,16.0666 18.1143,15.5036 16.7943,15.5036 C14.4743,15.5036 12.5823,17.4256 12.5823,19.7946 C12.5823,22.1626 14.4743,24.0846 16.7943,24.0846 C19.4833,24.0846 20.4923,22.1526 20.6473,21.1526 L16.7943,21.1526 L16.7943,18.8236 Z M30.3535,18.8236 L30.3535,20.7646 L28.4125,20.7646 L28.4125,22.7056 L26.4715,22.7056 L26.4715,20.7646 L24.5295,20.7646 L24.5295,18.8236 L26.4715,18.8236 L26.4715,16.8826 L28.4125,16.8826 L28.4125,18.8236 L30.3535,18.8236 Z" id="path-1"></path>
    </defs>
    <g id="Symbols" stroke="none" stroke-width="1" fill="none" fill-rule="evenodd">
        <g id="Icons-/-Social-/-Google" transform="translate(-2.000000, -2.000000)">
            <g id="Icons-/-Pin">
                <mask id="mask-2" fill="white">
                    <use xlink:href="#path-1"></use>
                </mask>
                <use id="Combined-Shape" fill="#065386" xlink:href="#path-1"></use>
            </g>
        </g>
    </g>
</svg>