<svg width="34px" height="34px" viewBox="0 0 34 34" version="1.1" xmlns="http://www.w3.org/2000/svg" xmlns:xlink="http://www.w3.org/1999/xlink">
    <!-- Generator: Sketch 48.1 (47250) - http://www.bohemiancoding.com/sketch -->
    <desc>Created with Sketch.</desc>
    <defs></defs>
    <g id="Icons" stroke="none" stroke-width="1" fill="none" fill-rule="evenodd">
        <g id="06-LS-Icons" transform="translate(-614.000000, -927.000000)" fill="#065386">
            <path d="M635.36796,929.164922 L628.040534,936.492348 L626.99397,935.445784 C626.416658,934.866992 625.479635,934.866992 624.900842,935.445784 L614.433724,945.912902 C614.15543,946.189716 614,946.56719 614,946.959466 C614,947.351743 614.15543,947.727736 614.433724,948.00603 L618.61998,952.192285 C618.898274,952.470579 619.274267,952.62601 619.666543,952.62601 C620.0603,952.62601 620.436293,952.470579 620.714587,952.192285 L631.180225,941.725167 C631.759018,941.147855 631.759018,940.210832 631.180225,939.63204 L630.133661,938.585476 L633.301478,935.419139 C633.51464,936.960119 634.18521,938.449289 635.36796,939.63204 C636.550711,940.81479 638.039881,941.48536 639.582341,941.698522 L636.414524,944.866339 L635.36796,943.819775 C634.789168,943.240982 633.852145,943.240982 633.274833,943.819775 L622.807715,954.285413 C622.228922,954.864205 622.228922,955.801228 622.807715,956.38002 L626.99397,960.566276 C627.272264,960.84457 627.648257,961 628.040534,961 C628.43281,961 628.810284,960.84457 629.087098,960.566276 L639.555696,950.099158 C639.83251,949.820863 639.98942,949.44487 639.98942,949.052594 C639.98942,948.660317 639.83251,948.282844 639.555696,948.00603 L638.507652,946.959466 L645.835078,939.63204 C648.721641,936.746958 648.721641,932.050003 645.835078,929.164922 C642.949997,926.278359 638.253042,926.278359 635.36796,929.164922 Z M637.315728,931.316295 C638.19363,930.438265 639.347659,930 640.500188,930 C641.652716,930 642.805244,930.438265 643.683146,931.316295 C645.438951,933.072356 645.438951,935.928582 643.683146,937.684643 C641.927342,939.437702 639.071533,939.439203 637.315728,937.684643 C635.561424,935.928582 635.561424,933.072356 637.315728,931.316295 Z" id="Fill-1"></path>
        </g>
    </g>
</svg>