<svg width="30px" height="21px" viewBox="0 0 30 21" version="1.1" xmlns="http://www.w3.org/2000/svg" xmlns:xlink="http://www.w3.org/1999/xlink">
    <!-- Generator: Sketch 48.1 (47250) - http://www.bohemiancoding.com/sketch -->
    <desc>Created with Sketch.</desc>
    <defs></defs>
    <g id="Services---Mobile" stroke="none" stroke-width="1" fill="none" fill-rule="evenodd">
        <g id="Shopping-Path---Brakes---Mobile" transform="translate(-36.000000, -2470.000000)" fill="#065386" fill-rule="nonzero">
            <g id="Benefits" transform="translate(20.000000, 1776.000000)">
                <g transform="translate(0.000000, 316.000000)" id="Benefit">
                    <g transform="translate(0.000000, 358.000000)">
                        <g id="Angle-+-Illustration-/-Handshake" transform="translate(0.000000, 4.000000)">
                            <g id="Icon-Angle">
                                <g id="Group" transform="translate(16.000000, 16.000000)">
                                    <path d="M26.25,10.3384615 L27.5,10.3384615 L27.5,2.58461538 L26.25,2.58461538 L26.25,10.3384615 Z M2.5,10.3384615 L3.75,10.3384615 L3.75,2.58461538 L2.5,2.58461538 L2.5,10.3384615 Z M28.75,0 L25,0 C24.31,0 23.75,0.578953846 23.75,1.29230769 L6.25,1.29230769 C6.25,0.578953846 5.69125,0 5,0 L1.25,0 C0.56,0 0,0.578953846 0,1.29230769 L0,11.6307692 C0,12.3441231 0.56,12.9230769 1.25,12.9230769 L5,12.9230769 C5.69125,12.9230769 6.25,12.3441231 6.25,11.6307692 L10,11.6307692 L10,6.46153846 C10,5.74818462 10.56,5.16923077 11.25,5.16923077 L13.75,5.16923077 C14.44125,5.16923077 15,5.74818462 15,6.46153846 C15,7.17489231 14.44125,7.75384615 13.75,7.75384615 L12.5,7.75384615 L12.5,11.6307692 L23.75,11.6307692 C23.75,12.3441231 24.31,12.9230769 25,12.9230769 L28.75,12.9230769 C29.44125,12.9230769 30,12.3441231 30,11.6307692 L30,1.29230769 C30,0.578953846 29.44125,0 28.75,0 Z" id="Shape"></path>
                                    <path d="M15.9773408,12.4522129 C15.4781268,11.8492624 14.4204255,11.8492624 13.9212115,12.4522129 L12.0666118,14.6872002 C10.5913621,16.4273611 10.6519527,18.5733052 12.2141368,19.9038668 C12.982057,20.5576992 13.9659959,20.8846154 14.9499347,20.8846154 C15.9338736,20.8846154 16.9178125,20.5576992 17.6844155,19.9038668 C18.419406,19.2792915 19.910462,17.5251381 17.8411608,14.6973766 L15.9773408,12.4522129 Z" id="Shape"></path>
                                </g>
                            </g>
                        </g>
                    </g>
                </g>
            </g>
        </g>
    </g>
</svg>