<?xml version="1.0" encoding="UTF-8"?>
<svg width="40px" height="40px" viewBox="0 0 40 40" version="1.1" xmlns="http://www.w3.org/2000/svg" xmlns:xlink="http://www.w3.org/1999/xlink">
    <!-- Generator: Sketch 47.1 (45422) - http://www.bohemiancoding.com/sketch -->
    <title>Icons / Category / More</title>
    <desc>Created with Sketch.</desc>
    <defs>
        <path d="M19.99992,3.99996 C28.8304238,3.99996 35.99992,11.1690514 35.99992,19.99996 C35.99992,28.8304638 28.8304238,35.99996 19.99992,35.99996 C11.1690114,35.99996 3.99992,28.8304638 3.99992,19.99996 C3.99992,11.1690514 11.1690114,3.99996 19.99992,3.99996 Z M19.99992,21.99996 C21.1044895,21.99996 21.99992,21.1045295 21.99992,19.99996 C21.99992,18.8953905 21.1044895,17.99996 19.99992,17.99996 C18.8953505,17.99996 17.99992,18.8953905 17.99992,19.99996 C17.99992,21.1045295 18.8953505,21.99996 19.99992,21.99996 Z M27.99992,21.99996 C29.1044895,21.99996 29.99992,21.1045295 29.99992,19.99996 C29.99992,18.8953905 29.1044895,17.99996 27.99992,17.99996 C26.8953505,17.99996 25.99992,18.8953905 25.99992,19.99996 C25.99992,21.1045295 26.8953505,21.99996 27.99992,21.99996 Z M11.99992,21.99996 C13.1044895,21.99996 13.99992,21.1045295 13.99992,19.99996 C13.99992,18.8953905 13.1044895,17.99996 11.99992,17.99996 C10.8953505,17.99996 9.99992,18.8953905 9.99992,19.99996 C9.99992,21.1045295 10.8953505,21.99996 11.99992,21.99996 Z" id="path-1"></path>
    </defs>
    <g id="Symbols" stroke="none" stroke-width="1" fill="none" fill-rule="evenodd">
        <g id="Icons-/-Category-/-More">
            <g id="Icons-/-Wheels">
                <rect id="Blank-Box" x="0" y="0" width="40" height="40"></rect>
                <mask id="mask-2" fill="white">
                    <use xlink:href="#path-1"></use>
                </mask>
                <use id="Combined-Shape" fill="#065386" xlink:href="#path-1"></use>
                <g id="🎨-Color-/-LS-Blue" mask="url(#mask-2)" fill="#065386">
                    <rect id="Box" x="0" y="0" width="40" height="40"></rect>
                </g>
            </g>
        </g>
    </g>
</svg>