<svg width="36px" height="32px" viewBox="0 0 36 32" version="1.1" xmlns="http://www.w3.org/2000/svg" xmlns:xlink="http://www.w3.org/1999/xlink">
    <!-- Generator: Sketch 48.1 (47250) - http://www.bohemiancoding.com/sketch -->
    <desc>Created with Sketch.</desc>
    <defs></defs>
    <g id="Symbols" stroke="none" stroke-width="1" fill="none" fill-rule="evenodd">
        <g id="Icons-/-My-Store-Nav" transform="translate(-2.000000, -5.000000)">
            <g>
                <rect id="Blank-Box" x="0" y="0" width="40" height="40"></rect>
                <path d="M12.1988806,26 C12.6745589,26.6178129 13.1953443,27.2830065 13.7634741,28 L8.45186856,28 L5.03104484,34.0404855 L35.1284589,34.0404855 L31.7076352,28 L26.1238615,28 C26.6759351,27.2989351 27.1953303,26.6311097 27.6783914,26 L32.2905423,26 C32.6507803,26 32.9831767,26.1937562 33.1606953,26.5072184 L37.7141511,34.5477039 C37.9863069,35.0282762 37.8173519,35.6384828 37.3367797,35.9106385 C37.1864889,35.9957506 37.0167157,36.0404855 36.8439981,36.0404855 L3.31550567,36.0404855 C2.76322092,36.0404855 2.31550567,35.5927703 2.31550567,35.0404855 C2.31550567,34.8677679 2.36024057,34.6979947 2.44535264,34.5477039 L6.99880841,26.5072184 C7.17632706,26.1937562 7.50872344,26 7.86896144,26 L12.1988806,26 Z" id="Map" fill="#ED1C24" fill-rule="nonzero"></path>
                <g id="Icons-/-Pin-Star" transform="translate(5.000000, 3.000000)">
                    <rect id="Blank-Box" x="0" y="0" width="30" height="30"></rect>
                    <g id="Icons-/-Pin" stroke-width="1" fill-rule="evenodd">
                        <rect id="Blank-Box" x="0" y="0" width="30" height="30"></rect>
                        <path d="M23.6447757,7.61575719 C21.2314274,2.81529267 15.381681,0.874121218 10.5812165,3.28746951 C5.78075195,5.70081779 3.91827664,11.7604206 6.25292879,16.3510287 C7.35467474,18.5282886 11.9452829,24.1944106 13.9651505,26.6864551 C14.4635594,27.3160242 15.407913,27.3160242 15.932554,26.6864551 C17.9524216,24.1944106 22.4905656,18.5282886 23.6710077,16.3510287 C25.1400023,13.67536 25.0875382,10.4750503 23.6447757,7.61575719" id="Combined-Shape" fill="#ED1C24"></path>
                        <path d="M17.6160521,12.8955561 C17.5281996,12.9836468 17.5281996,13.1598282 17.5281996,13.247919 L17.967462,15.6263682 C17.967462,15.978731 17.6160521,16.2430032 17.3524946,16.0668217 L15.1561822,14.9216425 C15.0683297,14.8335518 14.8926247,14.8335518 14.8047722,14.9216425 L12.6084599,16.0668217 C12.2570499,16.2430032 11.9056399,15.978731 11.9934924,15.6263682 L12.4327549,13.247919 C12.5206074,13.1598282 12.4327549,12.9836468 12.3449024,12.8955561 L10.5878525,11.2218326 C10.4121475,10.9575604 10.5,10.6051976 10.85141,10.5171069 L13.3112798,10.164744 C13.3991323,10.0766533 13.4869848,9.98856261 13.5748373,9.9004719 L14.6290672,7.6982041 C14.7169197,7.43393197 15.1561822,7.43393197 15.3318872,7.6982041 L16.3861171,9.9004719 C16.3861171,10.0766533 16.4739696,10.164744 16.6496746,10.164744 L19.1095445,10.5171069 C19.4609544,10.5171069 19.6366594,10.9575604 19.373102,11.2218326 L17.6160521,12.8955561 Z" id="Path" fill="#FFFFFF"></path>
                    </g>
                </g>
            </g>
        </g>
    </g>
</svg>