
<svg width="22px" height="21px" viewBox="0 0 22 21" version="1.1" xmlns="http://www.w3.org/2000/svg" xmlns:xlink="http://www.w3.org/1999/xlink">
    <!-- Generator: Sketch 48.1 (47250) - http://www.bohemiancoding.com/sketch -->
    <desc>Created with Sketch.</desc>
    <defs>
        <path d="M6.90327746,6.28634972 C6.22599815,6.84241969 5.69215033,7.581317 5.38890561,8.46200363 C4.49507036,11.0578897 5.93830094,13.9169771 8.60679737,14.8358141 C9.49256415,15.140808 10.4035037,15.1942981 11.2580201,15.0347392 C11.7861648,16.089825 12.130683,16.7732265 12.1266357,16.7534986 C11.0057295,17.101582 9.78433949,17.1773277 8.57028285,16.9299784 C8.56486598,17.0124392 7.83892433,19.1556079 7.83892433,19.1556079 C7.66644125,19.6580517 7.10819154,19.92048 6.59279265,19.743014 C6.07739376,19.5655479 5.79921034,19.0146046 5.97184752,18.5132298 C5.97184752,18.5132298 6.71926412,16.3774555 6.76607398,16.3097554 C5.62987417,15.7437827 4.6969498,14.9074514 4.02334002,13.9125113 C3.96082739,13.9651527 1.84793335,14.9724033 1.84793335,14.9724033 C1.36119769,15.2015452 0.769702768,14.9978772 0.527223695,14.5176465 C0.284744621,14.0374158 0.48271443,13.4624697 0.969450093,13.2333277 C0.969450093,13.2333277 3.09991201,12.243302 3.18478776,12.2288401 C2.81275325,11.1345456 2.71379133,9.94784599 2.93897131,8.77217579 C2.8617579,8.76438463 0.67332044,8.02100494 0.67332044,8.02100494 C0.157921548,7.84353887 -0.12026187,7.29259558 0.0523753094,6.7912208 C0.225012489,6.28984603 0.783418576,6.0269636 1.29881747,6.20442967 C1.29881747,6.20442967 3.47742156,6.96423498 3.54150863,7.00408151 C4.10071102,5.8956736 4.9425069,4.99175585 5.95144398,4.34706059 C5.93778499,4.33151605 6.32135755,5.1111651 6.90327746,6.28634972 Z M5.66626471,0.905417365 L7.13533576,9.617051e-05 L8.23201771,2.02760073 L8.61674999,0.490061516 L10.2558866,0.960187545 L9.43132806,4.24484083 L11.0674452,7.26963302 L12.7031594,4.24613456 L11.8785501,0.96168344 L13.5165003,0.491703241 L13.9031162,2.02849605 L14.9997107,0 L16.4672912,0.906186681 L15.3721657,2.93377741 L16.8096241,2.52044712 L17.2501619,4.27280962 L14.1722089,5.15141592 L12.5364947,8.17491438 L15.8074779,8.17464005 L18.0601628,5.77030912 L19.2599831,7.05057912 L18.2067451,8.17424164 L20.3985525,8.17415547 L20.4,9.98385271 L18.2067235,9.98484419 L19.2594496,11.1090531 L18.0608508,12.3912896 L15.8074563,9.98524261 L12.5364732,9.98551694 L14.1725903,13.0103091 L17.2498845,13.8904293 L16.8109065,15.6391115 L15.3719007,15.2275492 L16.4677345,17.2534857 L14.9986634,18.1588069 L13.9028296,16.1328704 L12.7035193,13.9156303 L9.59837418,8.17495422 L7.96225702,5.15016203 L6.76294666,2.93292193 L5.66626471,0.905417365 Z" id="path-1"></path>
    </defs>
    <g id="Symbols" stroke="none" stroke-width="1" fill="none" fill-rule="evenodd">
        <g id="section-title-/-seasonal" transform="translate(-1.000000, -2.000000)">
            <g id="section-title">
                <g id="Icons-/-Category-/-Seasons">
                    <g id="🎨-Color-/-Almost-Black" transform="translate(1.800000, 2.400000)">
                        <mask id="mask-2" fill="white">
                            <use xlink:href="#path-1"></use>
                        </mask>
                        <use id="Mask" fill="#065386" xlink:href="#path-1"></use>
                    </g>
                </g>
            </g>
        </g>
    </g>
</svg>