<?xml version="1.0" encoding="UTF-8"?>
<svg width="32px" height="32px" viewBox="0 0 32 32" version="1.1" xmlns="http://www.w3.org/2000/svg" xmlns:xlink="http://www.w3.org/1999/xlink">
    <!-- Generator: Sketch 48.2 (47327) - http://www.bohemiancoding.com/sketch -->
    <title>Icon / Speedometer</title>
    <desc>Created with Sketch.</desc>
    <defs></defs>
    <g id="Shopping-Path---Alignment---Desktop" stroke="none" stroke-width="1" fill="none" fill-rule="evenodd" transform="translate(-536.000000, -1714.000000)">
        <g id="Benefits" transform="translate(27.000000, 1463.000000)" fill="#065386">
            <g transform="translate(0.000000, 241.000000)" id="Benefit">
                <g transform="translate(494.000000, 0.000000)">
                    <g id="Angle-+-Illustration-/-Handshake">
                        <g id="Icon-Angle">
                            <g id="Icon-/-Speedometer" transform="translate(15.000000, 10.000000)">
                                <path d="M14.5581528,15.1457291 C14.8789864,14.6665587 15.4123437,14.3457251 15.9456797,14.3457251 C16.2123477,14.3457251 16.4790157,14.3998907 16.7456837,14.5582275 L16.7998493,14.5582275 C17.1727685,14.7707299 17.3873723,15.1457504 17.4936128,15.5186589 C17.599864,15.9457437 17.5477784,16.3728499 17.2811104,16.7457584 C17.068608,17.1186776 16.6935875,17.3853349 16.2686253,17.4915755 C15.8415405,17.5978267 15.4144344,17.5457411 15.0415259,17.2790731 C14.3456824,16.9061539 14.1332013,15.8936261 14.5581901,15.1457291 L14.5581528,15.1457291 Z M28.3726219,17.066592 L31.8934928,17.066592 C31.3601568,25.3877003 24.3723885,32 15.9478131,32 C7.51843759,32 0.533336,25.3877003 0,17.066592 L3.52087094,17.066592 C4.10839388,17.066592 4.58754294,16.5874216 4.58754294,15.99992 C4.58754294,15.4124184 4.10837254,14.933248 3.52087094,14.933248 L0,14.933248 C0.212502396,11.3061365 1.65419494,8.05428027 3.94583306,5.49373414 L6.45208559,7.99998667 C6.66458799,8.21248906 6.93125599,8.32082027 7.19790266,8.32082027 C7.46454932,8.32082027 7.73123866,8.21456907 7.94371972,7.99998667 C8.37080452,7.57290186 8.37080452,6.93331467 7.94371972,6.5062192 L5.43746719,3.99996667 C7.99790666,1.76038214 11.3041632,0.320801604 14.8769811,0.054133604 L14.8769811,3.57500454 C14.8769811,4.16252748 15.3561514,4.64167654 15.9436531,4.64167654 C16.531176,4.64167654 17.0103251,4.16250615 17.0103251,3.57500454 L17.0124051,0 C20.6395165,0.212502396 23.8913728,1.65419494 26.4519189,3.94583306 L23.9456664,6.4541656 C23.5185816,6.88125041 23.5185816,7.5208376 23.9456664,7.94793307 C24.1581688,8.16043547 24.4248368,8.26876668 24.6914835,8.26876668 C24.9581301,8.26876668 25.2248195,8.16251548 25.4373005,7.94793307 L27.9435531,5.44168054 C30.1831376,8.00212001 31.6227181,11.3083765 31.8893861,14.8811944 L28.3685152,14.8811944 C27.7809922,14.8811944 27.3018432,15.3603648 27.3018432,15.9478664 C27.3060085,16.5333093 27.7851789,17.0666453 28.3726752,17.0666453 L28.3726219,17.066592 Z M14.2392179,18.7728405 C14.7725539,19.0936741 15.3058899,19.2520109 15.8934128,19.2520109 C16.1600808,19.2520109 16.4267488,19.1978453 16.6934168,19.1457597 C17.5476077,18.9332573 18.2392379,18.3999427 18.7205203,17.6519923 C19.1476051,16.9061752 21.3872003,8.10634453 20.9080512,7.78527626 C20.4288808,7.46444266 13.9202829,13.0644493 13.1746792,14.2914421 C12.2663547,15.8393432 12.7455091,17.8123131 14.2392712,18.7726912 L14.2392179,18.7728405 Z M21.7059219,23.99996 C21.7059219,23.4124371 21.2267515,22.933288 20.6392499,22.933288 L11.2514696,22.933288 C10.6639467,22.933288 10.1847976,23.4124584 10.1847976,23.99996 L10.1847976,25.8124491 C10.1847976,26.399972 10.663968,26.8791211 11.2514696,26.8791211 L20.6392499,26.8791211 C21.2267728,26.8791211 21.7059219,26.3999507 21.7059219,25.8124491 L21.7059219,23.99996 Z" id="Page-1"></path>
                            </g>
                        </g>
                    </g>
                </g>
            </g>
        </g>
    </g>
</svg>