<svg width="35px" height="37px" viewBox="0 0 35 37" version="1.1" xmlns="http://www.w3.org/2000/svg" xmlns:xlink="http://www.w3.org/1999/xlink">
    <!-- Generator: Sketch 48.1 (47250) - http://www.bohemiancoding.com/sketch -->
    <desc>Created with Sketch.</desc>
    <defs></defs>
    <g id="Services---Desktop" stroke="none" stroke-width="1" fill="none" fill-rule="evenodd">
        <g id="Shopping-Path---Chains---Desktop" transform="translate(-697.000000, -855.000000)" fill="#065386" stroke="#065386">
            <g id="Benefits-Copy-3" transform="translate(31.000000, 685.000000)">
                <g id="Easy-On-Easy-Off-Copy" transform="translate(652.000000, 157.000000)">
                    <g id="Angle-+-Illustration-/-Handshake" transform="translate(0.000000, 5.000000)">
                        <g id="Icon-Angle">
                            <path d="M44.1998035,14.5124901 C44.1638336,14.0116531 43.7321943,13.5823641 43.2286152,13.5823641 L41.2502687,13.5823641 C42.4013067,11.7221121 43.5883146,10.4342453 44.6314428,10.5057935 C45.7105409,10.5773417 46.3939697,11.0066306 46.6097893,11.7578862 C46.9694887,12.9742048 46.1781501,15.0491013 44.3436833,16.9451274 L44.1998035,14.5124901 Z M38.5525234,21.1664685 C38.5525234,21.5599833 38.4086436,21.9534982 38.1568541,22.2396908 C37.617305,22.812076 36.6461167,22.8478501 36.1065677,22.3112389 C35.5310487,21.7388537 35.4950787,20.8087277 36.0346278,20.2005684 C36.2504474,19.9859239 36.502237,19.8070535 36.7899965,19.7712795 C36.6461167,20.1647943 36.502237,20.5583092 36.3943272,20.9875981 C36.2864173,21.3811129 36.466267,21.8104018 36.8619363,21.9177241 C36.9338762,21.9534982 37.0058161,21.9534982 37.077756,21.9534982 C37.4014854,21.9534982 37.6892449,21.7388537 37.7971547,21.416887 C37.9050645,21.0233722 38.0489443,20.6298573 38.192824,20.2363425 C38.4086436,20.5225351 38.5165534,20.8087277 38.5525234,21.1664685 Z M29.6679489,41.7007887 L17.4022003,29.9668914 L30.783017,15.5499384 L38.4805835,15.5499384 C38.0849142,16.3727421 37.7252148,17.2670941 37.3295455,18.3045423 C36.466267,18.2329941 35.5670186,18.5191868 34.9555297,19.1988942 C33.8404616,20.4152128 33.9124015,22.2754648 35.0994094,23.4202353 C35.6389585,23.9568465 36.3583572,24.2430391 37.1137259,24.2430391 C37.9050645,24.2430391 38.6964031,23.8852983 39.2719221,23.3129131 C39.8114712,22.7405279 40.0992307,21.9892722 40.0632607,21.1664685 C40.0272908,20.3794388 39.7035614,19.6281831 39.1280424,19.091572 C39.0201326,18.9842498 38.9122228,18.9127016 38.768343,18.8053794 C39.1999822,17.696383 39.7035614,16.6231607 40.2071405,15.5857124 L42.3653367,15.5857124 L43.0847355,27.3196097 L29.6679489,41.7007887 Z M48.0126169,11.3285973 C47.7967972,10.5415676 47.0414285,9.18215265 44.7033826,9.00328227 C44.1638336,8.96750819 42.0056373,9.14637857 39.4517718,13.5823641 L30.3154078,13.5823641 C30.171528,13.5823641 30.0276483,13.6181382 29.8837685,13.6896864 C29.7758587,13.7254604 29.6679489,13.7970086 29.596009,13.9043308 L15.315944,29.322958 C14.9562446,29.7164729 14.9562446,30.3246322 15.3519139,30.718147 L29.05646,43.8114592 C29.2363097,43.9903296 29.4880992,44.0618778 29.7039188,44.0618778 C29.9557084,44.0618778 30.207498,43.9545555 30.3873476,43.7399111 L44.6314428,28.3570579 C44.8472624,28.1781876 44.9551722,27.8562209 44.9551722,27.5700283 L44.4156231,18.8411535 C47.1493384,16.5873866 48.6600757,13.4750419 48.0126169,11.3285973 Z" id="Fill-1"></path>
                        </g>
                    </g>
                </g>
            </g>
        </g>
    </g>
</svg>