<?xml version="1.0" encoding="UTF-8"?>
<svg width="18px" height="14px" viewBox="0 0 18 14" version="1.1" xmlns="http://www.w3.org/2000/svg" xmlns:xlink="http://www.w3.org/1999/xlink">
    <!-- Generator: Sketch 48.2 (47327) - http://www.bohemiancoding.com/sketch -->
    <title>Traction</title>
    <desc>Created with Sketch.</desc>
    <defs></defs>
    <g id="Tire-Category-/-Traction" stroke="none" stroke-width="1" fill="none" fill-rule="evenodd" transform="translate(-1.000000, -3.000000)">
        <g id="Winter" fill="#FFFFFF">
            <g id="Icons-/-Traction">
                <path d="M18.5928041,3 C18.6993971,3 18.8053349,3.04391684 18.880709,3.11929098 C18.9560811,3.19466513 18.9999774,3.30059454 19,3.40719386 L19,16.520495 C19,16.6270902 18.9560811,16.7330135 18.880709,16.8083938 C18.8053349,16.8837537 18.6994055,16.9276542 18.5928041,16.9276746 L1.47366491,16.9276746 C1.14128911,16.9248239 1.00160168,16.7921042 1,16.4548885 L1,13.2602481 C1,13.1536325 1.0438305,13.0476278 1.11921157,12.9722068 C1.19458571,12.8967858 1.30055076,12.8528649 1.40718694,12.8528445 L5.30030059,12.8528445 L5.30030059,10.0239267 C5.30030059,9.9172907 5.34424655,9.81132667 5.41967098,9.73594642 C5.49509563,9.66056616 5.60108226,9.61670634 5.70771844,9.61674706 L9.59270814,9.61674706 L9.59270814,6.83607297 C9.59270814,6.729437 9.63665389,6.62347093 9.71207854,6.54809068 C9.78750298,6.47270839 9.89348981,6.4288506 10.000126,6.42888522 L13.8851226,6.42888522 L13.8851226,3.40719386 C13.8851226,3.30060065 13.9290397,3.19466513 14.0044138,3.11929098 C14.0797877,3.04391684 14.1857241,3.00002851 14.2923169,3.00000814 L18.5928408,3.00000814 L18.5928041,3 Z" id="Shape"></path>
            </g>
        </g>
    </g>
</svg>
