<?xml version="1.0" encoding="UTF-8"?>
<svg width="16px" height="16px" viewBox="0 0 16 16" version="1.1" xmlns="http://www.w3.org/2000/svg" xmlns:xlink="http://www.w3.org/1999/xlink">
    <!-- Generator: Sketch 48.2 (47327) - http://www.bohemiancoding.com/sketch -->
    <title>Ice</title>
    <desc>Created with Sketch.</desc>
    <defs></defs>
    <g id="Feature-/-Ice" stroke="none" stroke-width="1" fill="none" fill-rule="evenodd">
        <g id="Feature-Icon-/-Ice">
            <circle id="Oval" fill="#41B314" cx="8" cy="8" r="8"></circle>
            <g id="np_sugar-cubes_858456_FFFFFF" stroke-width="1" transform="translate(3.000000, 2.500000)" fill="#FFFFFF">
                <path d="M6.50776399,4.96026218 L3.81722068,5.05426656 L4.24168252,5.05426656 C4.64477724,5.05426656 4.97235779,5.38043601 4.97235779,5.78494183 L4.97235779,9.06373726 C4.97235779,9.46683198 4.64618834,9.79441253 4.24168252,9.79441253 L0.962887088,9.79441253 C0.559792368,9.79441253 0.232211819,9.46824309 0.232211819,9.06373726 L0.232211819,5.78494183 C0.232211819,5.38184711 0.558381263,5.05426656 0.962887088,5.05426656 L3.03385686,5.05426656 C2.72477747,4.97877792 2.48976103,4.70530796 2.47838468,4.37059166 L2.36443886,1.09321828 C2.35019582,0.690123559 2.66497141,0.351130197 3.06805884,0.336909759 L6.34685427,0.222963943 C6.74994899,0.208720898 7.08748384,0.523496489 7.10174074,0.926583917 L7.21568656,4.20537935 C7.22708114,4.53582221 7.01770525,4.82353084 6.7185911,4.92325622 L8.80523981,4.55436348 C9.2026099,4.4845703 9.58149341,4.74949705 9.65128294,5.14688172 L10.221012,8.37725474 C10.2908052,8.77462482 10.0273041,9.15350833 9.62849378,9.22329787 L6.39954281,9.79302695 C6.00217273,9.86282013 5.62328922,9.59931906 5.55349968,9.2005087 L4.9837706,5.97013569 C4.91397742,5.57276561 5.17747849,5.19530414 5.57628884,5.12409256 L6.50776399,4.96026218 Z M0.763083313,6.23390576 L0.763083313,8.81496329 C0.763083313,8.81496329 0.763083313,9.0327426 1.02118907,9.0327426 C1.27929482,9.0327426 1.27929482,8.81496329 1.27929482,8.81496329 L1.27929482,6.23390576 C1.27929482,6.23390576 1.27929482,6 1.02118907,6 C0.763083313,6 0.763083313,6.23390576 0.763083313,6.23390576 Z M3.04055105,1.25073473 L3.13372028,3.89883359 C3.13372028,3.89883359 3.14200205,4.122444 3.407016,4.11415958 C3.6720326,4.1038075 3.66375348,3.88019762 3.66375348,3.88019762 L3.57058425,1.23209876 C3.57058425,1.23209876 3.56230248,0.991930115 3.29728853,1.00020923 C3.03227193,1.01056131 3.04055105,1.25073473 3.04055105,1.25073473 Z M8.71660233,5.48460301 L6.14647938,5.93707467 C6.14647938,5.93707467 5.93043628,5.97579975 5.97527699,6.23260907 C6.02011665,6.48941788 6.23820091,6.45069229 6.23820091,6.45069229 L8.80628897,5.99822062 C8.80628897,5.99822062 9.04067742,5.95745753 8.99380182,5.70065133 C8.94896267,5.44384252 8.71661277,5.48460823 8.71661277,5.48460823 L8.71660233,5.48460301 Z" id="Shape" fill-rule="nonzero"></path>
            </g>
        </g>
    </g>
</svg>