<?xml version="1.0" encoding="UTF-8"?>
<svg width="16px" height="16px" viewBox="0 0 16 16" version="1.1" xmlns="http://www.w3.org/2000/svg" xmlns:xlink="http://www.w3.org/1999/xlink">
    <!-- Generator: Sketch 48.2 (47327) - http://www.bohemiancoding.com/sketch -->
    <title>SnowHandling</title>
    <desc>Created with Sketch.</desc>
    <defs></defs>
    <g id="Feature-/-Snow" stroke="none" stroke-width="1" fill="none" fill-rule="evenodd">
        <g id="Feature-Icon-/-Snow">
            <circle id="Oval" fill="#41B314" fill-rule="evenodd" cx="8" cy="8" r="8"></circle>
            <path d="M10.6030964,7.19888775 L9.15037871,8.03770111 L10.6282619,8.89104532 L12.2470284,8.45804939 C12.5703865,8.37215685 12.8937446,8.56583542 12.9796285,8.88919352 C13.065521,9.21255162 12.8718424,9.53590971 12.5484843,9.62179363 L12.1032157,9.742698 L12.6781294,10.0746588 C12.9585455,10.2472846 13.0663316,10.613589 12.8937015,10.8940051 C12.7859154,11.0876837 12.5914047,11.1954611 12.3758327,11.1954611 L12.3758111,11.1954697 C12.2680251,11.1954697 12.1602391,11.1735762 12.0743551,11.1095772 L11.496602,10.7759768 L11.6222143,11.2385841 C11.7081068,11.5619422 11.5144283,11.8853003 11.1910702,11.9711842 C11.1262304,11.9720262 11.0824412,11.9939206 11.0394971,11.9939206 L11.0394799,11.9939486 C10.7809659,11.9939486 10.5224519,11.8213228 10.4576078,11.5409024 L10.0258454,9.92674764 L8.56035803,9.08056092 L8.56035803,10.7434194 L9.7460475,11.9291089 C9.98352169,12.1665831 9.98352169,12.5539229 9.7460475,12.7913971 C9.63826147,12.9202359 9.48753348,12.9640229 9.31490337,12.9640229 C9.16417107,12.9640229 9.01344739,12.8991832 8.88375924,12.7913971 L8.56035803,12.4679959 L8.56035803,13.1356614 C8.56035803,13.4590195 8.30184401,13.7394356 7.95658379,13.7394356 C7.61132357,13.7394356 7.35280955,13.4590195 7.35280955,13.1356614 L7.35280955,12.4680821 L7.02949456,12.7913971 C6.79202037,13.0288713 6.40468049,13.0288713 6.1672063,12.7913971 C5.92973211,12.5539229 5.92973211,12.1665831 6.1672063,11.9291089 L7.35280955,10.7435056 L7.35280955,9.07563509 L5.97135298,9.8733016 L5.54245259,11.4767568 C5.47761282,11.7563322 5.24099661,11.9500021 4.96058047,11.9500021 L4.96056322,11.9499719 C4.91761696,11.9499719 4.85277719,11.9499719 4.80983092,11.9280784 C4.48647283,11.8421859 4.29280288,11.5188364 4.37868679,11.1954783 L4.50831736,10.7180727 L3.9045619,11.066687 C3.81782864,11.1315267 3.71004261,11.1525795 3.6022652,11.1525795 L3.60224364,11.1525709 C3.38667157,11.1525709 3.19300163,11.0447848 3.0852156,10.8511149 C2.9125898,10.5706987 3.02037583,10.1824966 3.30078766,10.0317686 L3.89888332,9.68642231 L3.45157601,9.557648 C3.12821791,9.47175547 2.93454797,9.14840599 3.02043188,8.8250479 C3.10631579,8.5016898 3.42967389,8.30801985 3.75303199,8.39390376 L5.38250632,8.8297639 L6.75425796,8.03770111 L5.38325522,7.24607073 L3.75210934,7.68237798 C3.71000596,7.68237798 3.64516619,7.7034301 3.60221993,7.7034301 L3.60224364,7.70341782 C3.34372962,7.70341782 3.0852156,7.53079202 3.02037152,7.25037156 C2.93447899,6.92701347 3.12815755,6.60365537 3.45151565,6.51777146 L3.90750258,6.39395675 L3.30078766,6.04363363 C3.02037152,5.87100784 2.91258549,5.50470347 3.0852156,5.22428733 C3.25784571,4.94387119 3.62414576,4.83608515 3.9045619,5.00871526 L4.50046794,5.35279723 L4.3777857,4.90098097 C4.29189317,4.57762287 4.48557173,4.25426477 4.80892983,4.16838086 C5.13228793,4.08248833 5.45564603,4.27616689 5.54152994,4.59952499 L5.96998356,6.2013099 L7.35280955,6.99976712 L7.35280955,5.41523069 L6.16800392,4.21132713 C5.93052973,3.97385294 5.93052973,3.58651305 6.16800392,3.34903887 C6.4054781,3.11156468 6.79281799,3.11156468 7.03029218,3.34903887 L7.35280955,3.67155623 L7.35280955,3.00377434 C7.35280955,2.65851412 7.63322569,2.4000001 7.95658379,2.4000001 C8.30184401,2.4000001 8.56035803,2.68041624 8.56035803,3.00377434 L8.56035803,3.6732377 L8.88455686,3.34903887 C9.12203104,3.11156468 9.50937093,3.11156468 9.74684512,3.34903887 C9.9843193,3.58651305 9.9843193,3.97385294 9.74684512,4.21132713 L8.56035803,5.39781422 L8.56035803,6.9948413 L10.0326208,6.14474241 L10.4576466,4.55577249 C10.5435391,4.23241439 10.8668886,4.03874444 11.1902467,4.12462835 C11.5136048,4.21052089 11.7072747,4.53387036 11.6213908,4.85722846 L11.5021979,5.29619424 L12.0743551,4.96582505 C12.3547713,4.79319925 12.7429735,4.90098528 12.8937015,5.18139711 C13.0663273,5.46181325 12.9585412,5.85001543 12.6781294,6.00074342 L12.0789101,6.34673847 L12.5476609,6.47401895 C12.871019,6.55991148 13.0646889,6.88326096 12.978805,7.20661906 C12.9148081,7.46681454 12.6562876,7.66050604 12.3977736,7.66050604 L12.3977995,7.66051898 C12.3548532,7.66051898 12.2900134,7.66051898 12.2470672,7.63862548 L10.6030964,7.19888775 Z" id="Combined-Shape" fill="#FFFFFF" fill-rule="nonzero"></path>
            <g id="np_sugar-cubes_858456_FFFFFF" stroke-width="1" fill-rule="evenodd" transform="translate(3.000000, 29.000000)"></g>
        </g>
    </g>
</svg>