<?xml version="1.0" encoding="UTF-8"?>
<svg width="32px" height="30px" viewBox="0 0 32 30" version="1.1" xmlns="http://www.w3.org/2000/svg" xmlns:xlink="http://www.w3.org/1999/xlink">
    <!-- Generator: Sketch 48.2 (47327) - http://www.bohemiancoding.com/sketch -->
    <title>Balance</title>
    <desc>Created with Sketch.</desc>
    <defs></defs>
    <g id="Services---Desktop" stroke="none" stroke-width="1" fill="none" fill-rule="evenodd">
        <g id="Icons" transform="translate(-574.000000, -123.000000)" fill="#065386">
            <g transform="translate(520.000000, 0.000000)" id="Icon-Angle">
                <g transform="translate(40.000000, 112.000000)">
                    <g id="Icons-/-Balance">
                        <g transform="translate(14.000000, 10.000000)">
                            <g id="np_scale_815894_065386" transform="translate(0.000000, 1.000000)">
                                <path d="M14.6718384,0.109834343 L17.649099,0.109834343 C17.8877349,0.109834343 18.1150061,0.215893333 18.2690586,0.400239192 C18.4218376,0.584581818 18.4849681,0.828263434 18.4407758,1.06312404 L17.2374788,7.58595232 C16.5241051,7.46347636 15.7955717,7.46347636 15.0821657,7.58595232 L13.8801293,1.06053818 C13.835937,0.825690505 13.9003313,0.583253333 14.0531103,0.398913939 C14.2058893,0.215831919 14.4331669,0.109772929 14.6718093,0.109772929 L14.6718384,0.109834343 Z M31.7779394,23.7057939 L31.7766768,23.7057939 C31.938293,23.8812994 32.0178373,24.1148768 31.9963746,24.3522586 C31.8372829,26.2891313 30.711009,28.0151273 29.0026938,28.9392485 C27.2930857,29.8647596 25.232512,29.8647596 23.5229362,28.9392485 C21.8145888,28.014998 20.6883504,26.289002 20.5292554,24.3522586 C20.5090534,24.1174109 20.5885977,23.8838303 20.7476894,23.7108364 C20.9080417,23.5365947 21.1327884,23.4381091 21.3689096,23.4381091 L21.4434049,23.4381091 L24.6757282,16.7475232 L23.105013,15.7778263 L23.105013,15.7765637 C22.4686332,15.3902041 21.7388393,15.1881839 20.9939181,15.1919657 C20.8120999,15.1919657 20.6315423,15.2033293 20.4509847,15.2273209 C19.8714292,17.1098906 18.1327948,18.392735 16.1629847,18.392735 C14.1945645,18.392735 12.4558332,17.1098906 11.8749847,15.2273209 C11.6893783,15.2033309 11.5012635,15.1907051 11.31311,15.1919657 C10.5719383,15.1894406 9.84466554,15.3927221 9.21209988,15.7765637 L7.64138473,16.7462607 L10.873708,23.4368465 L10.9482033,23.4368465 L10.9482033,23.4381094 C11.1843148,23.4381094 11.409068,23.5365951 11.5694235,23.7108367 C11.7285152,23.8838177 11.8080595,24.1173983 11.7878575,24.3522589 C11.6237168,26.2840892 10.4961888,28.0025215 8.79039483,28.9243801 C7.08460089,29.8461094 5.03023321,29.84737 3.32324331,28.9256427 C1.61744937,28.005174 0.489918061,26.2880023 0.323259475,24.3561073 C0.303057455,24.1199958 0.382601697,23.887679 0.542957253,23.7134245 C0.70204897,23.5404435 0.928056242,23.4406972 1.16417745,23.4406972 L1.23867281,23.4406972 L4.50267281,16.6819093 C3.75393745,15.8498447 3.81454352,14.5708144 4.64029867,13.8144831 C5.46479968,13.0581841 6.74509059,13.1074124 7.50898554,13.9243303 L8.65038352,13.0316596 L8.65038352,13.0329222 C9.69458554,12.2223202 10.9622381,11.7513707 12.2828684,11.681908 C13.0821249,10.2942717 14.5606542,9.4407444 16.1616562,9.4407444 C17.7626583,9.4407444 19.2411876,10.2942717 20.0404441,11.681908 C21.3598785,11.7526151 22.6263027,12.2235808 23.6703431,13.0329222 L24.8117411,13.9255929 L24.8117411,13.9243303 C25.5869815,13.169292 26.8180441,13.1516112 27.6160401,13.8839263 C28.414036,14.6162415 28.5024078,15.8435223 27.8167964,16.6818899 L31.0820894,23.4445566 L31.1565847,23.4445566 C31.3926962,23.4445566 31.6174494,23.5430423 31.7765443,23.71602 L31.7779394,23.7057939 Z M6.06092929,19.0189253 L3.92707879,23.444299 L8.19342222,23.444299 L6.06092929,19.0189253 Z M18.0622222,13.917996 C18.0609597,13.1503192 17.5975758,12.4584081 16.8867232,12.164202 C16.1771313,11.8712727 15.3601939,12.0354133 14.8172929,12.5783273 C14.2743596,13.1225212 14.1114828,13.9394263 14.4069495,14.6503111 C14.7011426,15.359903 15.3930667,15.8220283 16.162004,15.8220283 C17.2125091,15.8207654 18.0622545,14.968501 18.0622545,13.917996 L18.0622222,13.917996 Z M28.4056566,23.4407434 L26.2718061,19.0153697 L24.1379556,23.4407434 L28.4056566,23.4407434 Z" id="Shape" fill-rule="nonzero"></path>
                            </g>
                        </g>
                    </g>
                </g>
            </g>
        </g>
    </g>
</svg>