<?xml version="1.0" encoding="UTF-8"?>
<svg width="32px" height="21px" viewBox="0 0 32 21" version="1.1" xmlns="http://www.w3.org/2000/svg" xmlns:xlink="http://www.w3.org/1999/xlink">
    <!-- Generator: Sketch 48.2 (47327) - http://www.bohemiancoding.com/sketch -->
    <title>Boat</title>
    <desc>Created with Sketch.</desc>
    <defs></defs>
    <g id="Services---Desktop" stroke="none" stroke-width="1" fill="none" fill-rule="evenodd">
        <g id="Icons" transform="translate(-54.000000, -200.000000)" fill="#065386">
            <g id="Icon-Angle" transform="translate(40.000000, 184.000000)">
                <g id="Icons-/-Boat">
                    <g transform="translate(14.000000, 10.000000)">
                        <g id="np_boat_1209184_065386" transform="translate(0.000000, 6.000000)">
                            <path d="M30.762087,7.91443478 C30.762087,7.65356522 30.7158922,7.40629565 30.6289357,7.17937391 L7.28389217,7.17937391 L7.28389217,5.40761739 C7.28389217,4.87227826 6.98497739,4.43885217 6.61540522,4.43885217 C6.24583304,4.43885217 5.94691826,4.87227826 5.94691826,5.40761739 L5.94691826,7.17937391 L4.05968348,7.17937391 L4.05968348,5.40761739 C4.05968348,4.87227826 3.7607687,4.43885217 3.39119652,4.43885217 C3.02162435,4.43885217 2.72270957,4.87227826 2.72270957,5.40761739 L2.72270957,7.17937391 L0.0936313043,7.17937391 L2.0936313,10.4429565 L30.762153,10.4429565 L30.762087,7.91443478 Z" id="Shape" fill-rule="nonzero"></path>
                            <path d="M31.5582609,11.7812174 L2.94956522,11.7812174 L4.72267826,14.1698087 C5.11669565,14.6915478 5.7389913,15.0053913 6.38845217,15.0053913 L29.8326261,15.0053913 C30.6356174,15.0053913 31.3448696,14.5570087 31.6994783,13.8341913 C32.0201322,13.1589217 31.9657809,12.389913 31.5581739,11.7812174 L31.5582609,11.7812174 Z" id="Shape" fill-rule="nonzero"></path>
                            <path d="M26.9224348,18.3871304 L26.7186296,18.5909357 C26.464553,18.8436522 26.0256904,18.8436522 25.77296,18.5909357 L25.5691548,18.3871304 C24.8109983,17.6289739 23.4876243,17.6303304 22.7322157,18.3871304 L22.5284104,18.5909357 C22.2743339,18.8450122 21.8341148,18.8422957 21.5827409,18.5909357 L21.3789357,18.3857739 C20.596327,17.6031652 19.3232139,17.6045217 18.5406052,18.3857739 L18.3354435,18.5895791 C18.082727,18.8436557 17.6438609,18.8422957 17.3897739,18.5895791 L17.1859687,18.3857739 C16.40336,17.6031652 15.1316383,17.6031652 14.3490296,18.3857739 L14.1452243,18.5895791 C13.8911478,18.8422957 13.4522852,18.8422957 13.1995548,18.5895791 L12.9957496,18.3857739 C12.237593,17.6276174 10.9142191,17.6289739 10.1588104,18.3857739 L9.95500522,18.5895791 C9.69413565,18.8504487 9.2688487,18.8504487 9.00933565,18.5895791 L8.80553043,18.3844174 C8.02427826,17.6031652 6.7512,17.6018087 5.9672,18.3844174 C5.70633043,18.645287 5.70633043,19.0692174 5.9672,19.330087 C6.22806957,19.5909565 6.652,19.5909565 6.91286957,19.330087 C7.16558609,19.078727 7.6058087,19.0773704 7.85853913,19.330087 L8.06234435,19.5352487 C8.84495304,20.3178574 10.1180661,20.3165009 10.9006748,19.5352487 L11.1058365,19.3314435 C11.3571965,19.078727 11.7974191,19.078727 12.0515061,19.3314435 L12.2553113,19.5352487 C13.03792,20.3178574 14.3096417,20.3178574 15.0922504,19.5352487 L15.2960557,19.3314435 C15.5501322,19.078727 15.9889948,19.078727 16.2417252,19.3314435 L16.4455304,19.5352487 C16.8245913,19.9143096 17.3286957,20.1235617 17.864,20.1235617 C18.4006957,20.1235617 18.9047652,19.9143235 19.2824696,19.5352487 L19.4862748,19.3314435 C19.7389913,19.0800835 20.1792139,19.078727 20.4319443,19.3314435 L20.6357496,19.5366052 C21.4183583,20.3192139 22.6914713,20.3178574 23.47408,19.5366052 L23.6792417,19.3328 C23.9306017,19.0800835 24.3708243,19.0800835 24.6249113,19.3328 L24.8287165,19.5366052 C25.6113252,20.3192139 26.883047,20.3192139 27.6656557,19.5366052 L27.8694609,19.3328 C28.1303304,19.0719304 28.5542609,19.0719304 28.8151304,19.3328 C29.076,19.5936696 29.4999304,19.5936696 29.7608,19.3328 C30.0216696,19.0719304 30.0216696,18.648 29.7608,18.3871304 C28.9768348,17.6045217 27.7050783,17.6045217 26.9224696,18.3871304 L26.9224348,18.3871304 Z" id="Shape" fill-rule="nonzero"></path>
                            <path d="M25.7718261,5.80834783 L23.597913,3.85453913 L26.0462957,1.17248696 C26.2270017,0.971401739 26.2664035,0.690156522 26.1604278,0.449669565 C26.0530922,0.202386087 25.8193948,0.0488695652 25.5517322,0.0488695652 L15.5312104,0.0488695652 C15.3640904,0.0488695652 15.1969704,0.115446957 15.0760452,0.229575652 L9.12230609,5.80835826 L9.08833878,5.84232557 L25.8045127,5.84232557 L25.7718261,5.80834783 Z" id="Shape" fill-rule="nonzero"></path>
                        </g>
                    </g>
                </g>
            </g>
        </g>
    </g>
</svg>