<?xml version="1.0" encoding="UTF-8"?>
<svg width="24px" height="32px" viewBox="0 0 24 32" version="1.1" xmlns="http://www.w3.org/2000/svg" xmlns:xlink="http://www.w3.org/1999/xlink">
    <!-- Generator: Sketch 48.2 (47327) - http://www.bohemiancoding.com/sketch -->
    <title>EcoDrop</title>
    <desc>Created with Sketch.</desc>
    <defs></defs>
    <g id="Services---Desktop" stroke="none" stroke-width="1" fill="none" fill-rule="evenodd">
        <g id="Icon-Angle" transform="translate(-18.000000, -10.000000)" fill="#065386">
            <g id="Icons-/-EcoDrop">
                <g transform="translate(14.000000, 10.000000)">
                    <g id="Group" transform="translate(4.000000, 0.000000)">
                        <path d="M6.83426201,30.7956147 C7.75802872,25.8495466 12.8920211,20.6916791 13.5368319,20.162496 C13.7939514,20.0596753 14.0000702,20.0363574 14.1083182,20.1010169 C14.1988819,20.155077 14.2675882,20.2759159 14.3133897,20.4010044 C10.3773425,24.1916198 10.0921989,26.5532582 10.0724787,26.8162051 C10.056864,27.0186635 10.126608,27.2190106 10.2650599,27.3652732 C10.4035091,27.512613 10.6023287,27.5952934 10.7949206,27.5857524 C13.1360826,27.511552 14.9068508,26.6561304 16.0559527,25.0438774 C18.7874683,21.2152716 16.9137286,14.5021185 16.8335686,14.2180056 C16.764865,13.9752667 16.5754071,13.7887154 16.3349404,13.7251089 C16.0944764,13.6615077 15.8404695,13.7314687 15.6635206,13.9095489 C14.5559377,15.0236138 13.1943371,15.2652862 11.7514573,15.5196854 C10.0098963,15.8281393 8.03632972,16.1758317 6.79848682,18.3179405 C4.90806487,21.5870038 5.9917437,24.5157827 6.97337044,25.8332312 C6.45468281,26.8124362 5.41419028,28.5621155 5.06418059,29.7529971 C2.00154624,27.5766384 0,24.0004893 0,19.965008 C0,15.238608 3.13248,11.242448 6.44736,7.012368 C8.083584,4.927568 9.7736,2.771248 11.13984,0.457488 C11.498592,-0.152496 12.502336,-0.152496 12.862336,0.457488 C14.225856,2.771088 15.916,4.927376 17.552256,7.012368 L17.55264,7.012368 C20.867488,11.242448 24,15.238608 24,19.965008 C24,26.582608 18.6176,31.965008 12,31.965008 C10.1515951,31.965008 8.39955769,31.5450855 6.83426201,30.7956147 Z" id="Shape" fill-rule="nonzero"></path>
                    </g>
                </g>
            </g>
        </g>
    </g>
</svg>