<?xml version="1.0" encoding="UTF-8"?>
<svg width="32px" height="23px" viewBox="0 0 32 23" version="1.1" xmlns="http://www.w3.org/2000/svg" xmlns:xlink="http://www.w3.org/1999/xlink">
    <!-- Generator: Sketch 48.2 (47327) - http://www.bohemiancoding.com/sketch -->
    <title>Overlap</title>
    <desc>Created with Sketch.</desc>
    <defs></defs>
    <g id="Services---Desktop" stroke="none" stroke-width="1" fill="none" fill-rule="evenodd">
        <g id="Icons" transform="translate(-1094.000000, -127.000000)" fill="#065386">
            <g transform="translate(1040.000000, 0.000000)" id="Icon-Angle">
                <g transform="translate(40.000000, 112.000000)">
                    <g id="Icons-/-Overlap">
                        <g transform="translate(14.000000, 10.000000)">
                            <g id="np_overlap_799656_065386" transform="translate(0.000000, 5.000000)">
                                <path d="M31.36,9.6 L22.4,0.64 C21.6,-0.16 20,-0.16 19.2,0.64 L16,3.84 L12.8,0.64 C12,-0.16 10.4,-0.16 9.6,0.64 L0.64,9.6 C-0.16,10.4 -0.16,11.84 0.64,12.8 L9.6,21.76 C10.08,22.24 10.56,22.4 11.2,22.4 C11.84,22.4 12.32,22.24 12.8,21.76 L16,18.56 L19.2,21.76 C19.68,22.24 20.16,22.4 20.8,22.4 C21.44,22.4 21.92,22.24 22.4,21.76 L31.36,12.8 C31.84,12.32 32,11.84 32,11.2 C32,10.56 31.84,10.08 31.36,9.6 Z M20.8,18.88 L18.24,16.32 L21.76,12.8 C22.24,12.32 22.4,11.84 22.4,11.2 C22.4,10.56 22.24,10.08 21.76,9.6 L18.24,6.08 L20.8,3.52 L28.48,11.2 L20.8,18.88 Z" id="Shape" fill-rule="nonzero"></path>
                            </g>
                        </g>
                    </g>
                </g>
            </g>
        </g>
    </g>
</svg>