<?xml version="1.0" encoding="UTF-8"?>
<svg width="32px" height="32px" viewBox="0 0 32 32" version="1.1" xmlns="http://www.w3.org/2000/svg" xmlns:xlink="http://www.w3.org/1999/xlink">
    <!-- Generator: Sketch 48.2 (47327) - http://www.bohemiancoding.com/sketch -->
    <title>TireSize</title>
    <desc>Created with Sketch.</desc>
    <defs></defs>
    <g id="Services---Desktop" stroke="none" stroke-width="1" fill="none" fill-rule="evenodd">
        <g id="Icons" transform="translate(-1094.000000, -194.000000)" fill="#065386">
            <g transform="translate(1040.000000, 0.000000)" id="Icon-Angle">
                <g transform="translate(40.000000, 184.000000)">
                    <g id="Icons-/-TireSize">
                        <g transform="translate(14.000000, 10.000000)">
                            <g id="np_tire_1226332_065386" transform="translate(8.000000, 0.000000)">
                                <path d="M12,0 C5.38130526,0 0,5.38130526 0,12 C0,18.6186947 5.38130526,24 12,24 C18.6186947,24 24,18.6186947 24,12 C24,5.38130526 18.6186947,0 12,0 Z M12,18.4 C8.46271465,18.4 5.6,15.5362326 5.6,12 C5.6,8.46271465 8.46376735,5.6 12,5.6 C15.5372853,5.6 18.4,8.46376735 18.4,12 C18.4,15.5372853 15.5370748,18.4 12,18.4 Z" id="Shape" fill-rule="nonzero"></path>
                            </g>
                            <g id="np_sizes_844736_065386">
                                <path d="M1.51804444,18.9262222 C1.17082311,18.5790009 0.60832,18.5790009 0.261084444,18.9262222 C-0.0861368889,19.2734436 -0.0861368889,19.8359467 0.261084444,20.1831822 L2.92775111,22.8498489 C3.10136178,23.0248498 3.32775111,23.1109618 3.55552,23.1109618 C3.78328889,23.1109618 4.00967111,23.0248498 4.18467556,22.8512391 L6.85134222,20.1845724 C7.19856356,19.8373511 7.19856356,19.274848 6.85134222,18.9276124 C6.50412089,18.5803911 5.94161778,18.5803911 5.59438222,18.9276124 L4.44437333,20.0762347 L4.44437333,3.03445689 L5.59299556,4.18307911 C5.76799644,4.35808 5.99438222,4.444192 6.22215111,4.444192 C6.44992,4.444192 6.67630222,4.35808 6.85130667,4.18446933 C7.198528,3.837248 7.198528,3.27474489 6.85130667,2.92750933 L4.18464,0.260842667 C3.83741867,-0.0863786667 3.27491556,-0.0863786667 2.92768,0.260842667 L0.261013333,2.92750933 C-0.086208,3.27473067 -0.086208,3.83723378 0.261013333,4.18446933 C0.608234667,4.53169067 1.17073778,4.53169067 1.51797333,4.18446933 L2.66659556,3.03584711 L2.66659556,20.0776249 L1.51804444,18.9262222 Z" id="Shape" fill-rule="nonzero"></path>
                                <path d="M29.0737778,25.1484444 C28.7265564,24.8012231 28.1640533,24.8012231 27.8168178,25.1484444 C27.4695964,25.4956658 27.4695964,26.0581689 27.8168178,26.4054044 L28.96544,27.5540267 L11.9236622,27.5540267 L13.0722844,26.4054044 C13.4195058,26.0581831 13.4195058,25.49568 13.0722844,25.1484444 C12.7250631,24.8012231 12.16256,24.8012231 11.8153244,25.1484444 L9.14865778,27.8151111 C8.80143644,28.1623324 8.80143644,28.7248356 9.14865778,29.0720711 L11.8153244,31.7387378 C11.9903253,31.9137387 12.2167111,31.9998507 12.44448,31.9998507 C12.6722489,31.9998507 12.8986311,31.9137387 13.0736356,31.740128 C13.4208569,31.3929067 13.4208569,30.8304036 13.0736356,30.483168 L11.9236267,29.3331591 L28.9654044,29.3331591 L27.8167822,30.4817813 C27.4695609,30.8290027 27.4695609,31.3915058 27.8167822,31.7387413 C27.9903929,31.9137422 28.2167822,31.9998542 28.4445511,31.9998542 C28.67232,31.9998542 28.8987022,31.9137422 29.0737067,31.7401316 L31.7403733,29.0734649 C32.0875947,28.7262436 32.0875947,28.1637404 31.7403733,27.8165049 L29.0737778,25.1484444 Z" id="Shape" fill-rule="nonzero"></path>
                            </g>
                        </g>
                    </g>
                </g>
            </g>
        </g>
    </g>
</svg>