<?xml version="1.0" encoding="UTF-8"?>
<svg width="306px" height="140px" viewBox="0 0 306 140" version="1.1" xmlns="http://www.w3.org/2000/svg" xmlns:xlink="http://www.w3.org/1999/xlink">
    <!-- Generator: Sketch 48.2 (47327) - http://www.bohemiancoding.com/sketch -->
    <title>Illustration / Equal Payment Plan</title>
    <desc>Created with Sketch.</desc>
    <defs>
        <rect id="path-1" x="0" y="0" width="306" height="140"></rect>
        <path d="M1,0 L84,0 C85.1045695,-2.02906125e-16 86,0.8954305 86,2 L86,84 C86,85.1045695 85.1045695,86 84,86 L2,86 C0.8954305,86 1.3527075e-16,85.1045695 0,84 L0,1 C-6.76353751e-17,0.44771525 0.44771525,1.01453063e-16 1,0 Z" id="path-3"></path>
        <path d="M13.616055,17.6508464 L21.5348757,9.80864641 C21.7641047,9.58163536 22.1392068,9.58163536 22.3684358,9.80864641 L23.6187759,11.0468885 C23.8480049,11.2738996 23.8480049,11.6453722 23.6187759,11.8723833 L14.032835,21.3655728 C13.9182205,21.4790783 13.7671378,21.535831 13.616055,21.535831 C13.4649722,21.535831 13.3138895,21.4790783 13.199275,21.3655728 L8.82308456,17.0317254 C8.59385554,16.8047143 8.59385554,16.4332417 8.82308456,16.2062306 L10.0734247,14.9679885 C10.3026537,14.7409775 10.6777557,14.7409775 10.9069847,14.9679885 L13.616055,17.6508464 Z" id="path-4"></path>
    </defs>
    <g id="Credit---Landing-PDF---Desktop" stroke="none" stroke-width="1" fill="none" fill-rule="evenodd" transform="translate(-32.000000, -1218.000000)">
        <g id="Plans" transform="translate(32.000000, 1096.000000)">
            <g id="Plan-Card" transform="translate(0.000000, 122.000000)">
                <g id="Illustration">
                    <g id="Illustration-/-Equal-Payment-Plan">
                        <g>
                            <mask id="mask-2" fill="white">
                                <use xlink:href="#path-1"></use>
                            </mask>
                            <use id="Rectangle-6" fill="#F2F3F4" xlink:href="#path-1"></use>
                            <g id="Content" mask="url(#mask-2)">
                                <g transform="translate(-128.000000, 0.000000)">
                                    <g id="Payment" transform="translate(240.000000, 0.000000)">
                                        <g id="Calendar">
                                            <g id="Illustration-/-Calendar" transform="translate(24.000000, 24.000000)">
                                                <g id="Calendar">
                                                    <g id="Path">
                                                        <use fill="#FFFFFF" fill-rule="evenodd" xlink:href="#path-3"></use>
                                                        <path stroke-opacity="0.5" stroke="#BDC2C7" stroke-width="1" d="M1,0.5 C0.723857625,0.5 0.5,0.723857625 0.5,1 L0.5,84 C0.5,84.8284271 1.17157288,85.5 2,85.5 L84,85.5 C84.8284271,85.5 85.5,84.8284271 85.5,84 L85.5,2 C85.5,1.17157288 84.8284271,0.5 84,0.5 L1,0.5 Z"></path>
                                                    </g>
                                                    <path d="M0,0 L86,0 L86,22 L0,22 L0,0 Z M16.9090909,15 C19.0680222,15 20.8181818,13.209139 20.8181818,11 C20.8181818,8.790861 19.0680222,7 16.9090909,7 C14.7501596,7 13,8.790861 13,11 C13,13.209139 14.7501596,15 16.9090909,15 Z M67.9090909,15 C70.0680222,15 71.8181818,13.209139 71.8181818,11 C71.8181818,8.790861 70.0680222,7 67.9090909,7 C65.7501596,7 64,8.790861 64,11 C64,13.209139 65.7501596,15 67.9090909,15 Z" id="Combined-Shape" fill="#FDC203"></path>
                                                    <rect id="Rectangle-10" fill="#D0D2D3" x="28" y="28" width="8" height="8"></rect>
                                                    <rect id="Rectangle-10" fill="#D0D2D3" x="39" y="28" width="8" height="8"></rect>
                                                    <rect id="Rectangle-10" fill="#D0D2D3" x="50" y="28" width="8" height="8"></rect>
                                                    <rect id="Rectangle-10" fill="#D0D2D3" x="61" y="28" width="8" height="8"></rect>
                                                    <rect id="Rectangle-10" fill="#D0D2D3" x="72" y="28" width="8" height="8"></rect>
                                                    <rect id="Rectangle-10" fill="#D0D2D3" x="72" y="39" width="8" height="8"></rect>
                                                    <rect id="Rectangle-10" fill="#D0D2D3" x="61" y="39" width="8" height="8"></rect>
                                                    <rect id="Rectangle-10" fill="#D0D2D3" x="50" y="39" width="8" height="8"></rect>
                                                    <rect id="Rectangle-10" fill="#D0D2D3" x="39" y="39" width="8.07816246" height="8"></rect>
                                                    <rect id="Rectangle-10" fill="#D0D2D3" x="28" y="39" width="8" height="8"></rect>
                                                    <rect id="Rectangle-10" fill="#D0D2D3" x="17" y="39" width="8" height="8"></rect>
                                                    <rect id="Rectangle-10" fill="#D0D2D3" x="6" y="39" width="8" height="8"></rect>
                                                    <rect id="Rectangle-10" fill="#D0D2D3" x="6" y="50" width="8" height="8"></rect>
                                                    <rect id="Rectangle-10" fill="#D0D2D3" x="17" y="50" width="8" height="8"></rect>
                                                    <rect id="Rectangle-10" fill="#D0D2D3" x="28" y="50" width="8" height="8"></rect>
                                                    <rect id="Rectangle-10" fill="#D0D2D3" x="39" y="50" width="8" height="8"></rect>
                                                    <rect id="Rectangle-10" fill="#D0D2D3" x="50" y="50" width="8" height="8"></rect>
                                                    <rect id="Rectangle-10" fill="#D0D2D3" x="61" y="50" width="8" height="8"></rect>
                                                    <rect id="Rectangle-10" fill="#D0D2D3" x="72" y="50" width="8" height="8"></rect>
                                                    <rect id="Rectangle-10" fill="#D0D2D3" x="72" y="61" width="8" height="8"></rect>
                                                    <rect id="Rectangle-10" fill="#D0D2D3" x="61" y="61" width="8" height="8"></rect>
                                                    <rect id="Rectangle-10" fill="#D0D2D3" x="50" y="61" width="8" height="8"></rect>
                                                    <rect id="Rectangle-10" fill="#D0D2D3" x="39" y="61" width="8" height="8"></rect>
                                                    <rect id="Rectangle-10" fill="#D0D2D3" x="28" y="61" width="8" height="8"></rect>
                                                    <rect id="Rectangle-10" fill="#D0D2D3" x="17" y="61" width="8" height="8"></rect>
                                                    <rect id="Rectangle-10" fill="#D0D2D3" x="6" y="61" width="8" height="8"></rect>
                                                    <rect id="Rectangle-10" fill="#D0D2D3" x="17" y="72" width="8" height="8"></rect>
                                                    <rect id="Rectangle-10" fill="#D0D2D3" x="6" y="72" width="8" height="8"></rect>
                                                </g>
                                            </g>
                                            <g id="Burst" transform="translate(18.734219, 18.764333) scale(-1, -1) rotate(-45.000000) translate(-18.734219, -18.764333) translate(1.431893, 9.661411)" fill="#41B314">
                                                <rect id="Rectangle-17" x="16.40625" y="7.41176471" width="2.1875" height="8.47058824" rx="1.09375"></rect>
                                                <rect id="Rectangle-17" transform="translate(26.835740, 7.978801) rotate(-45.000000) translate(-26.835740, -7.978801) " x="25.7419902" y="3.74350649" width="2.1875" height="8.47058824" rx="1.09375"></rect>
                                                <rect id="Rectangle-17" transform="translate(8.165428, 7.978801) rotate(45.000000) translate(-8.165428, -7.978801) " x="7.07167778" y="3.74350649" width="2.1875" height="8.47058824" rx="1.09375"></rect>
                                            </g>
                                        </g>
                                        <g id="Card" transform="translate(82.000000, 56.000000)">
                                            <g id="Illustration-/-Card" transform="translate(0.000000, 15.000000)">
                                                <g>
                                                    <rect id="Rectangle-11" fill="#ED1C24" x="0" y="0" width="72" height="45" rx="3"></rect>
                                                    <rect id="Rectangle-12" fill="#FDC203" x="7" y="7" width="12" height="10" rx="2"></rect>
                                                    <rect id="Rectangle-13" fill="#BE161D" x="7" y="25" width="12" height="6" rx="2"></rect>
                                                    <rect id="Rectangle-13" fill="#BE161D" x="22" y="25" width="12" height="6" rx="2"></rect>
                                                    <rect id="Rectangle-13" fill="#BE161D" x="37" y="25" width="12" height="6" rx="2"></rect>
                                                    <rect id="Rectangle-13" fill="#BE161D" x="52" y="25" width="12" height="6" rx="2"></rect>
                                                    <rect id="Rectangle-13" fill="#BE161D" x="7" y="36" width="22" height="2" rx="1"></rect>
                                                </g>
                                            </g>
                                            <g id="Check" transform="translate(57.069767, 0.467303)">
                                                <ellipse id="Oval-4" fill="#41B314" cx="15.6802326" cy="15.5285142" rx="15.6802326" ry="15.5285142"></ellipse>
                                                <mask id="mask-5" fill="white">
                                                    <use xlink:href="#path-4"></use>
                                                </mask>
                                                <use id="Combined-Shape" fill="#FFFFFF" xlink:href="#path-4"></use>
                                            </g>
                                        </g>
                                    </g>
                                    <g id="Illustration-/-Tire" transform="translate(0.000000, 11.000000)">
                                        <g id="Tire">
                                            <path d="M253.44509,128.053713 C253.444993,126.586783 254.625203,125.392849 256.092036,125.375988 C255.902629,115.975268 254.679523,106.623921 252.44479,97.4907186 C251.518371,97.7381303 250.530331,97.4725092 249.852856,96.7939122 C249.175382,96.1153152 248.911397,95.1268372 249.160341,94.2008284 C249.409286,93.2748196 250.133341,92.5519627 251.05976,92.3045509 C248.439457,83.2742352 244.826594,74.5620732 240.287305,66.3275449 C239.028632,66.9244187 237.522562,66.4565474 236.823656,65.2515379 C236.124751,64.0465285 236.466488,62.5069289 237.609581,61.7107784 C232.732435,53.6740453 226.988706,46.1963604 220.481377,39.4117964 C219.428893,40.414162 217.768964,40.393922 216.741233,39.3661917 C215.713503,38.3384614 215.693263,36.6785318 216.695629,35.6260479 C209.921495,29.115149 202.454179,23.3662963 194.427425,18.4824551 C193.631275,19.6255479 192.091675,19.967285 190.886666,19.2683795 C189.681656,18.569474 189.213785,17.0634038 189.810659,15.8047305 C181.57613,11.2654424 172.863968,7.65257901 163.833653,5.03227545 C163.586241,5.95869507 162.863384,6.6827495 161.937375,6.93169444 C161.011366,7.18063937 160.022888,6.91665416 159.344291,6.23917947 C158.665694,5.56170478 158.400073,4.57366513 158.647485,3.64724551 C149.514283,1.41251335 140.162935,0.189406646 130.762216,0 C130.762216,1.47886643 129.563357,2.67772455 128.084491,2.67772455 C126.605625,2.67772455 125.406766,1.47886643 125.406766,0 C115.990577,0.186023837 106.623563,1.40915466 97.4753293,3.64724551 C97.8577948,5.07936616 97.0068811,6.55037885 95.5747605,6.93284431 C94.1426398,7.31530977 92.6716271,6.4643961 92.2891617,5.03227545 C83.258846,7.65257901 74.546684,11.2654424 66.3121557,15.8047305 C66.9090295,17.0634038 66.4411582,18.569474 65.2361487,19.2683795 C64.0311393,19.967285 62.4915397,19.6255479 61.6953892,18.4824551 C53.6586561,23.3596012 46.1809712,29.1033301 39.3964072,35.6106587 C40.3987728,36.6631426 40.3785328,38.3230722 39.3508025,39.3508025 C38.3230722,40.3785328 36.6631426,40.3987728 35.6106587,39.3964072 C29.1033301,46.1809712 23.3596012,53.6586561 18.4824551,61.6953892 C19.6255479,62.4915397 19.967285,64.0311393 19.2683795,65.2361487 C18.569474,66.4411582 17.0634038,66.9090295 15.8047305,66.3121557 C11.2654424,74.546684 7.65257901,83.258846 5.03227545,92.2891617 C6.4643961,92.6716271 7.31530977,94.1426398 6.93284431,95.5747605 C6.55037885,97.0068811 5.07936616,97.8577948 3.64724551,97.4753293 C1.41251335,106.608531 0.189406646,115.959879 1.13686838e-13,125.360599 C1.47886643,125.360599 2.67772455,126.559457 2.67772455,128.038323 C2.67772455,129.51719 1.47886643,130.716048 1.13686838e-13,130.716048 C0.17428323,140.115059 1.38190448,149.466382 3.60107784,158.601317 C5.03319841,158.218852 6.50421085,159.069766 6.88667627,160.501886 C7.26914168,161.934007 6.41822824,163.405019 4.98610778,163.787485 C7.60641134,172.817801 11.2192747,181.529963 15.7585629,189.764491 C17.0172361,189.167617 18.5233063,189.635489 19.2222118,190.840498 C19.9211173,192.045507 19.5793802,193.585107 18.4362874,194.381257 C23.3134335,202.417991 29.0571625,209.895676 35.564491,216.68024 C36.6169749,215.677874 38.2769045,215.698114 39.3046348,216.725844 C40.3323651,217.753575 40.3526051,219.413504 39.3502395,220.465988 C46.1348035,226.973317 53.6124884,232.717046 61.6492216,237.594192 C62.445372,236.451099 63.9849716,236.109362 65.1899811,236.808267 C66.3949905,237.507173 66.8628619,239.013243 66.265988,240.271916 C74.5005163,244.811204 83.2126783,248.424068 92.242994,251.044371 C92.6254595,249.612251 94.0964722,248.761337 95.5285928,249.143802 C96.9607135,249.526268 97.8116271,250.997281 97.4291617,252.429401 C106.578928,254.699738 115.951214,255.953849 125.375988,256.168982 C125.375988,254.690116 126.574846,253.491257 128.053713,253.491257 C129.532579,253.491257 130.731437,254.690116 130.731437,256.168982 C140.132157,255.979575 149.483504,254.756469 158.616707,252.521737 C158.234241,251.089616 159.085155,249.618604 160.517276,249.236138 C161.949396,248.853673 163.420409,249.704586 163.802874,251.136707 C172.83319,248.516403 181.545352,244.90354 189.77988,240.364251 C189.183006,239.105578 189.650878,237.599508 190.855887,236.900603 C192.060897,236.201697 193.600496,236.543434 194.396647,237.686527 C202.43338,232.809381 209.911065,227.065652 216.695629,220.558323 C215.693263,219.505839 215.713503,217.84591 216.741233,216.81818 C217.768964,215.790449 219.428893,215.770209 220.481377,216.772575 C226.988706,209.988011 232.732435,202.510326 237.609581,194.473593 C236.466488,193.677442 236.124751,192.137843 236.823656,190.932833 C237.522562,189.727824 239.028632,189.259953 240.287305,189.856826 C244.826594,181.622298 248.439457,172.910136 251.05976,163.87982 C249.62764,163.497355 248.776727,162.026342 249.159192,160.594222 C249.541658,159.162101 251.01267,158.311188 252.44479,158.693653 C254.679523,149.560451 255.902629,140.209103 256.092036,130.808383 C255.373678,130.800424 254.688647,130.504145 254.19089,129.98613 C253.693133,129.468116 253.424402,128.771817 253.44509,128.053713 Z" id="Shape" fill="#000000" fill-rule="nonzero"></path>
                                            <circle id="Oval" fill="#FFFFFF" fill-rule="nonzero" cx="128.038323" cy="128.038323" r="79.1467665"></circle>
                                            <path d="M128.053713,247.551018 C62.0571732,247.551018 8.55640719,194.050252 8.55640719,128.053713 C8.55640719,62.0571732 62.0571732,8.55640719 128.053713,8.55640719 C194.050252,8.55640719 247.551018,62.0571732 247.551018,128.053713 C247.474694,194.018612 194.018612,247.474694 128.053713,247.551018 Z M128.053713,10.0953293 C62.9070964,10.0953293 10.0953293,62.9070964 10.0953293,128.053713 C10.0953293,193.200329 62.9070964,246.012096 128.053713,246.012096 C193.200329,246.012096 246.012096,193.200329 246.012096,128.053713 C245.935774,62.938736 193.168689,10.1716509 128.053713,10.0953293 Z" id="Shape" fill="#636363" fill-rule="nonzero"></path>
                                            <circle id="Oval" fill="#D0D2D3" fill-rule="nonzero" cx="128.038323" cy="128.038323" r="69.2053293"></circle>
                                            <path d="M128.053713,128.053713 L145.812874,81.270479 C146.17345,80.3287851 146.92827,79.5921857 147.878492,79.2547237 C148.828714,78.9172617 149.879052,79.0127769 150.752814,79.5161078 L158.75521,84.1328743 C159.626146,84.6399812 160.231547,85.5028258 160.412091,86.4943357 C160.592634,87.4858457 160.330237,88.5067073 159.693952,89.2882635 L128.053713,128.053713 Z" id="Shape" fill="#000000" fill-rule="nonzero"></path>
                                            <path d="M128.053713,128.053713 L96.4134731,166.834551 C95.7771886,167.616107 95.514791,168.636969 95.6953346,169.628479 C95.8758782,170.619989 96.481279,171.482833 97.3522156,171.98994 L105.354611,176.606707 C106.228373,177.110037 107.278711,177.205553 108.228933,176.868091 C109.179155,176.530629 109.933975,175.794029 110.294551,174.852335 L128.053713,128.053713 Z" id="Shape" fill="#000000" fill-rule="nonzero"></path>
                                            <path d="M128.053713,128.053713 L166.834551,96.4134731 C167.616107,95.7771886 168.636969,95.514791 169.628479,95.6953346 C170.619989,95.8758782 171.482833,96.481279 171.98994,97.3522156 L176.606707,105.354611 C177.110037,106.228373 177.205553,107.278711 176.868091,108.228933 C176.530629,109.179155 175.794029,109.933975 174.852335,110.294551 L128.053713,128.053713 Z" id="Shape" fill="#000000" fill-rule="nonzero"></path>
                                            <path d="M128.053713,128.053713 L81.270479,145.812874 C80.3287851,146.17345 79.5921857,146.92827 79.2547237,147.878492 C78.9172617,148.828714 79.0127769,149.879052 79.5161078,150.752814 L84.1328743,158.75521 C84.6399812,159.626146 85.5028258,160.231547 86.4943357,160.412091 C87.4858457,160.592634 88.5067073,160.330237 89.2882635,159.693952 L128.053713,128.053713 Z" id="Shape" fill="#000000" fill-rule="nonzero"></path>
                                            <path d="M128.053713,128.053713 L177.453114,120.035928 C178.448405,119.878479 179.462756,120.164405 180.229295,120.818479 C180.995834,121.472552 181.437803,122.429279 181.438922,123.436946 L181.438922,132.670479 C181.453793,133.679489 181.025792,134.644347 180.267821,135.310532 C179.509851,135.976717 178.498035,136.277323 177.499281,136.133054 L128.053713,128.053713 Z" id="Shape" fill="#000000" fill-rule="nonzero"></path>
                                            <path d="M128.053713,128.053713 L78.6543114,120.035928 C77.6590205,119.878479 76.6446688,120.164405 75.87813,120.818479 C75.1115912,121.472552 74.6696218,122.429279 74.668503,123.436946 L74.668503,132.670479 C74.6696218,133.678146 75.1115912,134.634873 75.87813,135.288946 C76.6446688,135.94302 77.6590205,136.228946 78.6543114,136.071497 L128.053713,128.053713 Z" id="Shape" fill="#000000" fill-rule="nonzero"></path>
                                            <path d="M128.053713,128.053713 L174.836946,145.812874 C175.77864,146.17345 176.515239,146.92827 176.852701,147.878492 C177.190163,148.828714 177.094648,149.879052 176.591317,150.752814 L171.974551,158.75521 C171.467444,159.626146 170.604599,160.231547 169.613089,160.412091 C168.621579,160.592634 167.600718,160.330237 166.819162,159.693952 L128.053713,128.053713 Z" id="Shape" fill="#000000" fill-rule="nonzero"></path>
                                            <path d="M128.053713,128.053713 L89.2728743,96.4134731 C88.4913181,95.7771886 87.4704564,95.514791 86.4789465,95.6953346 C85.4874366,95.8758782 84.624592,96.481279 84.117485,97.3522156 L79.5007186,105.354611 C78.9973877,106.228373 78.9018724,107.278711 79.2393345,108.228933 C79.5767965,109.179155 80.3133959,109.933975 81.2550898,110.294551 L128.053713,128.053713 Z" id="Shape" fill="#000000" fill-rule="nonzero"></path>
                                            <path d="M128.053713,128.053713 L159.693952,166.834551 C160.330237,167.616107 160.592634,168.636969 160.412091,169.628479 C160.231547,170.619989 159.626146,171.482833 158.75521,171.98994 L150.752814,176.606707 C149.879052,177.110037 148.828714,177.205553 147.878492,176.868091 C146.92827,176.530629 146.17345,175.794029 145.812874,174.852335 L128.053713,128.053713 Z" id="Shape" fill="#000000" fill-rule="nonzero"></path>
                                            <path d="M128.053713,128.053713 L110.294551,81.270479 C109.933975,80.3287851 109.179155,79.5921857 108.228933,79.2547237 C107.278711,78.9172617 106.228373,79.0127769 105.354611,79.5161078 L97.3522156,84.1328743 C96.481279,84.6399812 95.8758782,85.5028258 95.6953346,86.4943357 C95.514791,87.4858457 95.7771886,88.5067073 96.4134731,89.2882635 L128.053713,128.053713 Z" id="Shape" fill="#000000" fill-rule="nonzero"></path>
                                            <path d="M128.053713,128.053713 L136.071497,177.453114 C136.228946,178.448405 135.94302,179.462756 135.288946,180.229295 C134.634873,180.995834 133.678146,181.437803 132.670479,181.438922 L123.436946,181.438922 C122.429279,181.437803 121.472552,180.995834 120.818479,180.229295 C120.164405,179.462756 119.878479,178.448405 120.035928,177.453114 L128.053713,128.053713 Z" id="Shape" fill="#000000" fill-rule="nonzero"></path>
                                            <path d="M128.053713,128.053713 L136.071497,78.6543114 C136.228946,77.6590205 135.94302,76.6446688 135.288946,75.87813 C134.634873,75.1115912 133.678146,74.6696218 132.670479,74.668503 L123.436946,74.668503 C122.429279,74.6696218 121.472552,75.1115912 120.818479,75.87813 C120.164405,76.6446688 119.878479,77.6590205 120.035928,78.6543114 L128.053713,128.053713 Z" id="Shape" fill="#000000" fill-rule="nonzero"></path>
                                            <circle id="Oval" fill="#D0D2D3" fill-rule="nonzero" cx="128.038323" cy="128.038323" r="17.158982"></circle>
                                        </g>
                                    </g>
                                </g>
                            </g>
                        </g>
                    </g>
                </g>
            </g>
        </g>
    </g>
</svg>